Carga de la evolución del r0 de un conjunto de entidades en un csv
…
# corregimos el formato del dato fecha del excel:
# covid19$Fecha <- excel_numeric_to_date(covid19$Fecha)

# se declara un vector que almacene los valores de R0:
R0_v <- c()
comuna_v <- c()
codigo_comuna_v <- c()
region_v <- c()

# secuencia <- c()

datos_covid19_providencia <-  covid19 %>% filter(Comuna == "Providencia")
datos_covid19_providencia

## # A tibble: 126 x 16
##    Region Comuna `Codigo comuna` Fecha  Clave `Casos Diarios` `Casos Acumulad~
##    <chr>  <chr>            <dbl> <dbl>  <dbl>           <dbl>            <dbl>
##  1 Metro~ Provi~           13123 43895 1.31e9               1                1
##  2 Metro~ Provi~           13123 43896 1.31e9               0                1
##  3 Metro~ Provi~           13123 43897 1.31e9               0                1
##  4 Metro~ Provi~           13123 43898 1.31e9               0                1
##  5 Metro~ Provi~           13123 43899 1.31e9               0                1
##  6 Metro~ Provi~           13123 43900 1.31e9               1                2
##  7 Metro~ Provi~           13123 43901 1.31e9               1                3
##  8 Metro~ Provi~           13123 43902 1.31e9               0                3
##  9 Metro~ Provi~           13123 43903 1.31e9               1                4
## 10 Metro~ Provi~           13123 43904 1.31e9               2                6
## # ... with 116 more rows, and 9 more variables: Muertes <dbl>, `Casos
## #   Activos` <dbl>, Recuperados <dbl>, `Recuperados Diarios` <dbl>, Día <dbl>,
## #   `Fallecidos Diarios` <dbl>, `on-off` <chr>, `Max Día` <dbl>,
## #   Poblacion <dbl>
…
