Analisis predictivo sobre el Covid-19
…
ON

128

23959

##  [1] "Region"              "Comuna"              "Codigo comuna"      
##  [4] "Fecha"               "Clave"               "Casos Diarios"      
##  [7] "Casos Acumulados"    "Muertes"             "Casos Activos"      
## [10] "Recuperados"         "Recuperados Diarios" "Da"                
## [13] "Fallecidos Diarios"  "on-off"              "Max Da"            
## [16] "Poblacion"

## # A tibble: 138 x 16
##    Region Comuna `Codigo comuna` Fecha      Clave `Casos Diarios`
##    <fct>  <fct>            <dbl> <date>     <chr>           <dbl>
##  1 Metro~ Provi~           13123 2020-03-05 1312~               1
##  2 Metro~ Provi~           13123 2020-03-06 1312~               0
##  3 Metro~ Provi~           13123 2020-03-07 1312~               0
##  4 Metro~ Provi~           13123 2020-03-08 1312~               0
##  5 Metro~ Provi~           13123 2020-03-09 1312~               0
##  6 Metro~ Provi~           13123 2020-03-10 1312~               1
##  7 Metro~ Provi~           13123 2020-03-11 1312~               1
##  8 Metro~ Provi~           13123 2020-03-12 1312~               0
##  9 Metro~ Provi~           13123 2020-03-13 1312~               1
## 10 Metro~ Provi~           13123 2020-03-14 1312~               2
## # ... with 128 more rows, and 10 more variables: `Casos Acumulados` <dbl>,
## #   Muertes <dbl>, `Casos Activos` <dbl>, Recuperados <dbl>, `Recuperados
## #   Diarios` <dbl>, Da <dbl>, `Fallecidos Diarios` <dbl>, `on-off` <chr>, `Max
## #   Da` <dbl>, Poblacion <dbl>
…
