Análisis geoespacial con R, de la epidemia Covid19 en Chile por Región a nivel comunal.
…
Región de Arica y Parinacota.

DataIntelligence

21-07-2020

## Reading layer `comunas' from data source `C:\Users\usuario\Documents\GitHub\Analisis_covid19_con_R\proyecto_integrado\shapes_de_chile\comunas.shp' using driver `ESRI Shapefile'
## Simple feature collection with 346 features and 11 fields
## geometry type:  MULTIPOLYGON
## dimension:      XY
## bbox:           xmin: -12184470 ymin: -7554436 xmax: -7393642 ymax: -1978920
## projected CRS:  WGS 84 / Pseudo-Mercator

## # A tibble: 229 x 15
##    Region Comuna `Codigo comuna` Fecha               Clave `Casos Diarios`
##    <chr>  <chr>            <dbl> <dttm>              <chr>           <dbl>
##  1 Arica~ Arica            15101 2020-03-17 00:00:00 1510~               1
##  2 Arica~ Arica            15101 2020-03-18 00:00:00 1510~               0
##  3 Arica~ Arica            15101 2020-03-19 00:00:00 1510~               0
##  4 Arica~ Arica            15101 2020-03-20 00:00:00 1510~               0
##  5 Arica~ Arica            15101 2020-03-21 00:00:00 1510~               0
##  6 Arica~ Arica            15101 2020-03-22 00:00:00 1510~               1
##  7 Arica~ Arica            15101 2020-03-23 00:00:00 1510~               0
##  8 Arica~ Arica            15101 2020-03-24 00:00:00 1510~               0
##  9 Arica~ Arica            15101 2020-03-25 00:00:00 1510~               0
## 10 Arica~ Arica            15101 2020-03-26 00:00:00 1510~               1
## # ... with 219 more rows, and 9 more variables: `Casos Acumulados` <dbl>,
## #   Muertes <dbl>, `Casos Activos` <dbl>, Recuperados <dbl>, `Recuperados
## #   Diarios` <dbl>, Día <dbl>, `Fallecidos Diarios` <dbl>, `on-off` <chr>, `Max
## #   Día` <dbl>
…
